{
  "version": "1.0.0.0",
  "designWidth": 640,
  "designHeight": 960,
  "dataScale": 1.0,
  "textures": [],
  "texturesPng": [],
  "nodeTree": {
    "options": {
      "$type": "EditorCommon.JsonModel.Component.GUI.RootGUISurrogate, EditorCommon",
      "visible": true,
      "frameEvent": null,
      "name": "Node",
      "classname": "Node"
    },
    "children": [
      {
        "options": {
          "$type": "EditorCommon.JsonModel.Component.GUI.ButtonSurrogate, EditorCommon",
          "normalData": {
            "resourceType": 0,
            "path": "btn0.png",
            "plistFile": ""
          },
          "pressedData": {
            "resourceType": 0,
            "path": "btn0on.png",
            "plistFile": ""
          },
          "disabledData": {
            "resourceType": 0
          },
          "text": "",
          "capInsetsWidth": 1.0,
          "capInsetsHeight": 1.0,
          "scale9Width": 320.0,
          "scale9Height": 88.0,
          "touchAble": true,
          "visible": true,
          "classType": "Button",
          "width": 320.0,
          "height": 88.0,
          "sizePercentX": 0.214583337,
          "sizePercentY": 0.125,
          "actionTag": 944038604,
          "tag": 27,
          "anchorPointX": 0.0,
          "anchorPointY": 0.0,
          "ignoreSize": true,
          "name": "btn0",
          "classname": "Button"
        },
        "children": [],
        "classname": "Button"
      },
      {
        "options": {
          "$type": "EditorCommon.JsonModel.Component.GUI.ButtonSurrogate, EditorCommon",
          "normalData": {
            "resourceType": 0,
            "path": "btn1.png",
            "plistFile": ""
          },
          "pressedData": {
            "resourceType": 0,
            "path": "btn1on.png",
            "plistFile": ""
          },
          "disabledData": {
            "resourceType": 0
          },
          "text": "",
          "capInsetsWidth": 1.0,
          "capInsetsHeight": 1.0,
          "scale9Width": 160.0,
          "scale9Height": 88.0,
          "y": 88.0,
          "touchAble": true,
          "visible": true,
          "classType": "Button",
          "width": 160.0,
          "height": 88.0,
          "positionPercentY": 0.275,
          "sizePercentX": 0.214583337,
          "sizePercentY": 0.125,
          "actionTag": 435443763,
          "tag": 29,
          "anchorPointX": 0.0,
          "anchorPointY": 0.0,
          "ignoreSize": true,
          "name": "btn1",
          "classname": "Button"
        },
        "children": [],
        "classname": "Button"
      },
      {
        "options": {
          "$type": "EditorCommon.JsonModel.Component.GUI.ButtonSurrogate, EditorCommon",
          "normalData": {
            "resourceType": 0,
            "path": "btn2.png",
            "plistFile": ""
          },
          "pressedData": {
            "resourceType": 0,
            "path": "btn2on.png",
            "plistFile": ""
          },
          "disabledData": {
            "resourceType": 0
          },
          "text": "",
          "capInsetsWidth": 1.0,
          "capInsetsHeight": 1.0,
          "scale9Width": 160.0,
          "scale9Height": 88.0,
          "x": 160.0,
          "y": 88.0,
          "touchAble": true,
          "visible": true,
          "classType": "Button",
          "width": 160.0,
          "height": 88.0,
          "positionPercentX": 0.333333343,
          "positionPercentY": 0.275,
          "sizePercentX": 0.214583337,
          "sizePercentY": 0.125,
          "actionTag": 194510015,
          "tag": 30,
          "anchorPointX": 0.0,
          "anchorPointY": 0.0,
          "ignoreSize": true,
          "name": "Button_5",
          "classname": "Button"
        },
        "children": [],
        "classname": "Button"
      }
    ],
    "classname": "Node"
  },
  "action": {
    "speed": 1.0,
    "timelines": []
  }
}